<?xml version="1.0" encoding="UTF-8" standalone="no"?>
<svg width="282px" height="402px" viewBox="0 0 282 402" version="1.1" xmlns="http://www.w3.org/2000/svg" xmlns:xlink="http://www.w3.org/1999/xlink">
    <!-- Generator: Sketch 3.6.1 (26313) - http://www.bohemiancoding.com/sketch -->
    <title>Group 5</title>
    <desc>Created with Sketch.</desc>
    <defs>
        <filter x="-50%" y="-50%" width="200%" height="200%" filterUnits="objectBoundingBox" id="filter-1">
            <feOffset dx="0" dy="-0" in="SourceAlpha" result="shadowOffsetOuter1"></feOffset>
            <feGaussianBlur stdDeviation="0.5" in="shadowOffsetOuter1" result="shadowBlurOuter1"></feGaussianBlur>
            <feColorMatrix values="0 0 0 0 0   0 0 0 0 0   0 0 0 0 0  0 0 0 0.49 0" in="shadowBlurOuter1" type="matrix" result="shadowMatrixOuter1"></feColorMatrix>
            <feOffset dx="0" dy="0" in="SourceAlpha" result="shadowOffsetOuter2"></feOffset>
            <feGaussianBlur stdDeviation="0.5" in="shadowOffsetOuter2" result="shadowBlurOuter2"></feGaussianBlur>
            <feColorMatrix values="0 0 0 0 0   0 0 0 0 0   0 0 0 0 0  0 0 0 0.56 0" in="shadowBlurOuter2" type="matrix" result="shadowMatrixOuter2"></feColorMatrix>
            <feMerge>
                <feMergeNode in="shadowMatrixOuter1"></feMergeNode>
                <feMergeNode in="shadowMatrixOuter2"></feMergeNode>
                <feMergeNode in="SourceGraphic"></feMergeNode>
            </feMerge>
            <feGaussianBlur stdDeviation="4.8 0" in="SourceGraphic" result="blur"></feGaussianBlur>
        </filter>
        <rect id="path-2" x="0" y="0" width="282" height="401" rx="16.64"></rect>
        <linearGradient x1="97.1456252%" y1="71.6941237%" x2="2.41207122%" y2="66.0651979%" id="linearGradient-4">
            <stop stop-color="#F3F3F3" offset="0%"></stop>
            <stop stop-color="#616161" offset="3.35330887%"></stop>
            <stop stop-color="#C7C7C7" offset="19.3580449%"></stop>
            <stop stop-color="#EBEBEB" offset="48.9561886%"></stop>
            <stop stop-color="#D9D9D9" offset="84.6723616%"></stop>
            <stop stop-color="#B3B5B3" offset="93.2373703%"></stop>
            <stop stop-color="#5F6160" offset="100%"></stop>
        </linearGradient>
        <linearGradient x1="69.9356019%" y1="1.57665881%" x2="54.1993916%" y2="96.3548252%" id="linearGradient-5">
            <stop stop-color="#100100100" offset="0%"></stop>
            <stop stop-color="#4C4C4C" offset="2.4493772%"></stop>
            <stop stop-color="#969696" offset="8.71497018%"></stop>
            <stop stop-color="#E6E6E6" offset="37.6076049%"></stop>
            <stop stop-color="#E6E6E6" offset="78.9352086%"></stop>
            <stop stop-color="#4D4D4D" offset="97.5819187%"></stop>
            <stop stop-color="#F2F2F2" offset="100%"></stop>
        </linearGradient>
        <linearGradient x1="3.27224301%" y1="26.7207891%" x2="96.628104%" y2="26.7207882%" id="linearGradient-6">
            <stop stop-color="#323232" offset="0%"></stop>
            <stop stop-color="#CCCCCC" offset="24.9575445%"></stop>
            <stop stop-color="#F3F3F3" offset="51.6681385%"></stop>
            <stop stop-color="#7F7F7F" offset="81.9391746%"></stop>
            <stop stop-color="#4C4C4C" offset="93.5045464%"></stop>
            <stop stop-color="#F3F3F3" offset="100%"></stop>
        </linearGradient>
        <linearGradient x1="37.78463%" y1="2.17207588%" x2="37.7846301%" y2="97.773863%" id="linearGradient-7">
            <stop stop-color="#4C4C4C" offset="0%"></stop>
            <stop stop-color="#CCCCCC" offset="8.06118139%"></stop>
            <stop stop-color="#E6E6E6" offset="30.0854011%"></stop>
            <stop stop-color="#E6E6E6" offset="56.9519829%"></stop>
            <stop stop-color="#9A9A9A" offset="79.3798651%"></stop>
            <stop stop-color="#343434" offset="100%"></stop>
        </linearGradient>
        <filter x="-50%" y="-50%" width="200%" height="200%" filterUnits="objectBoundingBox" id="filter-8">
            <feOffset dx="0" dy="-0" in="SourceAlpha" result="shadowOffsetInner1"></feOffset>
            <feGaussianBlur stdDeviation="0.5" in="shadowOffsetInner1" result="shadowBlurInner1"></feGaussianBlur>
            <feComposite in="shadowBlurInner1" in2="SourceAlpha" operator="arithmetic" k2="-1" k3="1" result="shadowInnerInner1"></feComposite>
            <feColorMatrix values="0 0 0 0 0   0 0 0 0 0   0 0 0 0 0  0 0 0 0.14 0" in="shadowInnerInner1" type="matrix" result="shadowMatrixInner1"></feColorMatrix>
            <feMerge>
                <feMergeNode in="SourceGraphic"></feMergeNode>
                <feMergeNode in="shadowMatrixInner1"></feMergeNode>
            </feMerge>
        </filter>
        <rect id="path-9" x="0" y="0" width="282" height="401" rx="16.64"></rect>
        <filter x="-50%" y="-50%" width="200%" height="200%" filterUnits="objectBoundingBox" id="filter-11">
            <feOffset dx="0" dy="0" in="SourceAlpha" result="shadowOffsetOuter1"></feOffset>
            <feGaussianBlur stdDeviation="0.5" in="shadowOffsetOuter1" result="shadowBlurOuter1"></feGaussianBlur>
            <feColorMatrix values="0 0 0 0 0   0 0 0 0 0   0 0 0 0 0  0 0 0 0.35 0" in="shadowBlurOuter1" type="matrix" result="shadowMatrixOuter1"></feColorMatrix>
            <feMerge>
                <feMergeNode in="shadowMatrixOuter1"></feMergeNode>
                <feMergeNode in="SourceGraphic"></feMergeNode>
            </feMerge>
        </filter>
        <filter x="-50%" y="-50%" width="200%" height="200%" filterUnits="objectBoundingBox" id="filter-12">
            <feOffset dx="0" dy="0" in="SourceAlpha" result="shadowOffsetOuter1"></feOffset>
            <feGaussianBlur stdDeviation="0.5" in="shadowOffsetOuter1" result="shadowBlurOuter1"></feGaussianBlur>
            <feColorMatrix values="0 0 0 0 1   0 0 0 0 1   0 0 0 0 1  0 0 0 0.7 0" in="shadowBlurOuter1" type="matrix" result="shadowMatrixOuter1"></feColorMatrix>
            <feOffset dx="0" dy="0" in="SourceAlpha" result="shadowOffsetInner1"></feOffset>
            <feGaussianBlur stdDeviation="0.5" in="shadowOffsetInner1" result="shadowBlurInner1"></feGaussianBlur>
            <feComposite in="shadowBlurInner1" in2="SourceAlpha" operator="arithmetic" k2="-1" k3="1" result="shadowInnerInner1"></feComposite>
            <feColorMatrix values="0 0 0 0 0   0 0 0 0 0   0 0 0 0 0  0 0 0 0.175 0" in="shadowInnerInner1" type="matrix" result="shadowMatrixInner1"></feColorMatrix>
            <feMerge>
                <feMergeNode in="shadowMatrixOuter1"></feMergeNode>
                <feMergeNode in="SourceGraphic"></feMergeNode>
                <feMergeNode in="shadowMatrixInner1"></feMergeNode>
            </feMerge>
        </filter>
        <radialGradient cx="74.8901367%" cy="84.2651367%" fx="74.8901367%" fy="84.2651367%" r="58.4252149%" id="radialGradient-13">
            <stop stop-color="#747474" offset="0%"></stop>
            <stop stop-color="#262626" offset="100%"></stop>
        </radialGradient>
        <filter x="-50%" y="-50%" width="200%" height="200%" filterUnits="objectBoundingBox" id="filter-14">
            <feOffset dx="0" dy="0" in="SourceAlpha" result="shadowOffsetInner1"></feOffset>
            <feGaussianBlur stdDeviation="0.5" in="shadowOffsetInner1" result="shadowBlurInner1"></feGaussianBlur>
            <feComposite in="shadowBlurInner1" in2="SourceAlpha" operator="arithmetic" k2="-1" k3="1" result="shadowInnerInner1"></feComposite>
            <feColorMatrix values="0 0 0 0 0   0 0 0 0 0.404235338   0 0 0 0 0.652715774  0 0 0 0.7 0" in="shadowInnerInner1" type="matrix" result="shadowMatrixInner1"></feColorMatrix>
            <feOffset dx="-0" dy="-0" in="SourceAlpha" result="shadowOffsetInner2"></feOffset>
            <feGaussianBlur stdDeviation="0" in="shadowOffsetInner2" result="shadowBlurInner2"></feGaussianBlur>
            <feComposite in="shadowBlurInner2" in2="SourceAlpha" operator="arithmetic" k2="-1" k3="1" result="shadowInnerInner2"></feComposite>
            <feColorMatrix values="0 0 0 0 0.0644498571   0 0 0 0 0.558968337   0 0 0 0 0.848330543  0 0 0 0.391558479 0" in="shadowInnerInner2" type="matrix" result="shadowMatrixInner2"></feColorMatrix>
            <feMerge>
                <feMergeNode in="SourceGraphic"></feMergeNode>
                <feMergeNode in="shadowMatrixInner1"></feMergeNode>
                <feMergeNode in="shadowMatrixInner2"></feMergeNode>
            </feMerge>
        </filter>
        <filter x="-50%" y="-50%" width="200%" height="200%" filterUnits="objectBoundingBox" id="filter-15">
            <feGaussianBlur stdDeviation="0.16" in="SourceGraphic" result="blur"></feGaussianBlur>
        </filter>
        <filter x="-50%" y="-50%" width="200%" height="200%" filterUnits="objectBoundingBox" id="filter-16">
            <feGaussianBlur stdDeviation="0" in="SourceGraphic" result="blur"></feGaussianBlur>
        </filter>
        <radialGradient cx="50%" cy="0%" fx="50%" fy="0%" r="100%" id="radialGradient-17">
            <stop stop-color="#FFFFFF" stop-opacity="0.5" offset="0%"></stop>
            <stop stop-color="#000000" stop-opacity="0.5" offset="100%"></stop>
        </radialGradient>
        <rect id="path-18" x="18.3739377" y="36.4181637" width="245.252125" height="328.163673"></rect>
        <rect id="path-20" x="18.3739377" y="36.4181637" width="245.252125" height="328.163673"></rect>
    </defs>
    <g id="Page-1" stroke="none" stroke-width="1" fill="none" fill-rule="evenodd">
        <g id="iPhone-6-Plus" transform="translate(-39.000000, -1834.000000)">
            <g id="Driving-Your-Business" transform="translate(0.000000, 1512.000000)">
                <g id="Group-5" transform="translate(39.000000, 322.000000)">
                    <g id="iPad-Air">
                        <g id="Device">
                            <rect id="Shadow" fill="#000000" opacity="0.6" filter="url(#filter-1)" x="14.3796034" y="400.199601" width="254.03966" height="0.800399202" rx="1.6"></rect>
                            <g id="Edge">
                                <mask id="mask-3" fill="white">
                                    <use xlink:href="#path-2"></use>
                                </mask>
                                <use id="DAT-CHAMPHER" fill="#FFFFFF" xlink:href="#path-2"></use>
                                <path d="M-2.84217094e-13,-1.90944871 L7.3457759,6.71234725 L273.346954,13.6067864 L284.796034,6.12781871 L258.615476,-13.2065868 L1.1228258,-10.6249191 L-2.84217094e-13,-1.90944871 Z" id="Top" fill="url(#linearGradient-4)" mask="url(#mask-3)"></path>
                                <path d="M10.7153826,10.0127422 L0.936713876,-1.6007984 L-2.43400832,11.0937699 L-6.39093484,405.001996 L11.5835694,388.606409 L10.7153826,10.0127422 Z" id="Left" fill="url(#linearGradient-5)" mask="url(#mask-3)"></path>
                                <path d="M8.76889085,391.978168 L-0.399433428,399.80452 L12.9608,413.086999 C12.9608,413.086999 183.852977,413.298999 269.299065,413.404998 C269.618649,413.405395 270.257818,413.406188 270.257818,413.406188 L282.399433,399.80452 L272.781254,390.59481 L8.76889085,391.978168 Z" id="Bottom" fill="url(#linearGradient-6)" mask="url(#mask-3)"></path>
                                <path d="M271.614731,390.396433 L284.533277,400.199601 L284.796034,394.107042 L284.796034,7.20359281 L273.655594,12.9888637 L271.614731,390.396433 Z" id="Right" fill="url(#linearGradient-7)" mask="url(#mask-3)"></path>
                                <mask id="mask-10" fill="white">
                                    <use xlink:href="#path-9"></use>
                                </mask>
                                <g id="DAT-CHAMPHER" filter="url(#filter-8)"></g>
                            </g>
                            <rect id="Glass" stroke="#D9D9D9" stroke-width="0.5" fill="#F6F7F9" filter="url(#filter-11)" x="2.39660057" y="2.4011976" width="278.005666" height="396.597804" rx="14.4"></rect>
                            <rect id="Screen-Edge" fill="#262626" x="17.1756374" y="35.2175649" width="247.648725" height="330.56487" rx="1.28"></rect>
                            <path d="M141.399433,392.595808 C146.473256,392.595808 150.586402,388.474773 150.586402,383.391218 C150.586402,378.307662 146.473256,374.186627 141.399433,374.186627 C136.32561,374.186627 132.212465,378.307662 132.212465,383.391218 C132.212465,388.474773 136.32561,392.595808 141.399433,392.595808 Z M141.59915,391.795409 C146.121471,391.795409 149.787535,388.122312 149.787535,383.591317 C149.787535,379.060322 146.121471,375.387226 141.59915,375.387226 C137.07683,375.387226 133.410765,379.060322 133.410765,383.591317 C133.410765,388.122312 137.07683,391.795409 141.59915,391.795409 Z" id="Home-Button" fill="" filter="url(#filter-12)"></path>
                            <g id="Camera" transform="translate(139.002833, 16.007984)">
                                <ellipse id="Outer" fill="url(#radialGradient-13)" cx="2.39660057" cy="2.4011976" rx="2.39660057" ry="2.4011976"></ellipse>
                                <rect id="Base" stroke="#333333" stroke-width="0.5" fill="#032D61" filter="url(#filter-14)" x="1.19830028" y="1.2005988" width="1.99716714" height="2.000998" rx="1.28"></rect>
                                <circle id="Oval-2" fill="#03DBF8" filter="url(#filter-15)" cx="2.19716714" cy="2.200998" r="0.2"></circle>
                                <path id="Path-5" fill="#13ABC8" d="M3.19593122,2.4011976 C3.20314394,2.07892397 2.82832912,2.000998 2.82832912,2.000998 C2.82832912,2.000998 2.99341025,2.19357521 2.98503294,2.4011976 C2.97726268,2.59377481 2.79603399,2.80139721 2.79603399,2.80139721 C2.79603399,2.80139721 3.1887185,2.72347124 3.19593122,2.4011976 Z"></path>
                                <path id="Oval-3" fill="#2FA4B9" filter="url(#filter-16)" d="M1.48787535,2.8011976 C1.51548959,2.8011976 1.53787535,2.71165456 1.53787535,2.6011976 C1.53787535,2.49074065 1.51548959,2.4011976 1.48787535,2.4011976 C1.46026112,2.4011976 1.43787535,2.49074065 1.43787535,2.6011976 C1.43787535,2.71165456 1.46026112,2.8011976 1.48787535,2.8011976 Z"></path>
                            </g>
                        </g>
                        <mask id="mask-19" fill="white">
                            <use xlink:href="#path-18"></use>
                        </mask>
                        <g id="Place-your-mockup-above-this-layer">
                            <use fill="none" xlink:href="#path-18"></use>
                            <use fill="url(#radialGradient-17)" xlink:href="#path-18"></use>
                        </g>
                        <mask id="mask-21" fill="white">
                            <use xlink:href="#path-20"></use>
                        </mask>
                        <use id="overlay" fill-opacity="0.0299999956" fill="#FFFFFF" xlink:href="#path-20"></use>
                    </g>
                </g>
            </g>
        </g>
    </g>
</svg>