<?xml version="1.0" encoding="UTF-8" standalone="no"?>
<svg width="142px" height="28px" viewBox="0 0 142 28" version="1.1" xmlns="http://www.w3.org/2000/svg" xmlns:xlink="http://www.w3.org/1999/xlink">
    <!-- Generator: Sketch 3.6.1 (26313) - http://www.bohemiancoding.com/sketch -->
    <title>logo</title>
    <desc>Created with Sketch.</desc>
    <defs></defs>
    <g id="Page-1" stroke="none" stroke-width="1" fill="none" fill-rule="evenodd">
        <g id="iPhone-6-Plus" transform="translate(-137.000000, -83.000000)" fill="#FFFFFF">
            <g id="logo" transform="translate(137.000000, 83.000000)">
                <g id="Group">
                    <path d="M13.8885161,27.16 L13.8885161,17.292 C13.8885161,14.4236667 12.3494194,12.2433333 9.42107834,12.2433333 C6.60561751,12.2433333 4.69058065,14.653 4.69058065,17.5213333 L4.69058065,27.16 L0.147889401,27.16 L0.147889401,8.26533333 L4.24004147,8.26533333 L4.54040092,10.828 C6.41748387,8.95366667 8.29489401,7.99766667 10.6225161,7.99766667 C14.9777281,7.99766667 18.4691613,11.3253333 18.4691613,17.254 L18.4691613,27.1603333 L13.8885161,27.1603333 L13.8885161,27.16 Z" id="Shape"></path>
                    <path d="M39.4943226,17.751 C39.4943226,23.1823333 35.8523825,27.581 29.8455207,27.581 C23.838659,27.581 20.2343456,23.1823333 20.2343456,17.751 C20.2343456,12.358 23.9139124,7.92133333 29.8082212,7.92133333 C35.70253,7.92133333 39.4943226,12.358 39.4943226,17.751 L39.4943226,17.751 Z M24.8146636,17.751 C24.8146636,20.6196667 26.5039401,23.2973333 29.8451935,23.2973333 C33.1867742,23.2973333 34.8763779,20.62 34.8763779,17.751 C34.8763779,14.9206667 32.9240415,12.167 29.8451935,12.167 C26.5415668,12.1666667 24.8146636,14.9206667 24.8146636,17.751 L24.8146636,17.751 Z" id="Shape"></path>
                    <path d="M53.6485161,27.16 L53.6485161,17.0623333 C53.6485161,14.5763333 52.3721521,12.3196667 49.8567235,12.3196667 C47.3785945,12.3196667 45.914424,14.5763333 45.914424,17.0623333 L45.914424,27.16 L41.334106,27.16 L41.334106,8.26533333 L45.5764378,8.26533333 L45.914424,10.5603333 C46.8904286,8.648 49.0302442,7.95933333 50.7951014,7.95933333 C53.0104977,7.95933333 55.2252396,8.87733333 56.2764977,11.4783333 C57.9284747,8.801 60.0686175,8.036 62.4714931,8.036 C67.7274562,8.036 70.3181382,11.3253333 70.3181382,16.986 L70.3181382,27.16 L65.7374931,27.16 L65.7374931,16.986 C65.7374931,14.5 64.7238618,12.3963333 62.2457327,12.3963333 C59.7682581,12.3963333 58.2288341,14.5766667 58.2288341,17.0626667 L58.2288341,27.1603333 L53.6485161,27.1603333 L53.6485161,27.16 Z" id="Shape"></path>
                    <path d="M88.3406866,8.30366667 L92.7331982,8.30366667 L92.7331982,27.16 L88.4156129,27.16 L88.1905069,24.406 C87.1392488,26.6243333 84.2482074,27.6953333 82.1836452,27.7336667 C76.7019217,27.7716667 72.6473963,24.3293333 72.6473963,17.7126667 C72.6473963,11.2103333 76.8900553,7.80633333 82.2961982,7.84466667 C84.774,7.84466667 87.139576,9.03033333 88.1908341,10.9046667 L88.3406866,8.30366667 L88.3406866,8.30366667 Z M77.2277143,17.713 C77.2277143,21.3083333 79.6678894,23.4503333 82.7087834,23.4503333 C89.9170829,23.4503333 89.9170829,12.014 82.7087834,12.014 C79.6678894,12.014 77.2277143,14.1176667 77.2277143,17.713 L77.2277143,17.713 Z" id="Shape"></path>
                    <path d="M114.509258,0.424333333 L114.509258,27.16 L110.2293,27.16 L109.92894,24.559 C108.502396,26.816 106.212401,27.5806667 103.959705,27.5806667 C98.5156083,27.5806667 94.4234562,23.9086667 94.4234562,17.7126667 C94.4234562,11.2103333 98.440682,7.84466667 103.847152,7.84466667 C105.799488,7.84466667 108.840382,8.91566667 109.929267,10.8663333 L109.929267,0.424333333 L114.509258,0.424333333 L114.509258,0.424333333 Z M99.0037742,17.713 C99.0037742,21.0023333 101.331069,23.259 104.259737,23.259 C107.150452,23.259 109.628253,21.117 109.628253,17.713 C109.628253,14.4236667 107.150452,12.2053333 104.259737,12.2053333 C101.331069,12.205 99.0037742,14.3086667 99.0037742,17.713 L99.0037742,17.713 Z" id="Shape"></path>
                    <path d="M122.169078,2.987 C122.169078,6.62066667 116.762935,6.62066667 116.762935,2.987 C116.762935,-0.646666667 122.169078,-0.646333333 122.169078,2.987 L122.169078,2.987 Z M117.175521,8.22733333 L117.175521,27.1603333 L121.755839,27.1603333 L121.755839,8.22733333 L117.175521,8.22733333 L117.175521,8.22733333 Z" id="Shape"></path>
                    <path d="M129.039392,0.424333333 L129.039392,15.8766667 L135.272014,8.30333333 L140.753083,8.30333333 L140.753083,8.571 L133.207124,17.177 L141.804341,26.8156667 L141.804341,27.1596667 L136.285645,27.1596667 L129.039719,18.6303333 L129.039719,27.1596667 L124.459401,27.1596667 L124.459401,0.424 L129.039392,0.424 L129.039392,0.424333333 Z" id="Shape"></path>
                </g>
            </g>
        </g>
    </g>
</svg>