<?xml version="1.0" encoding="UTF-8" standalone="no"?>
<svg width="212px" height="51px" viewBox="0 0 212 51" version="1.1" xmlns="http://www.w3.org/2000/svg" xmlns:xlink="http://www.w3.org/1999/xlink">
    <!-- Generator: Sketch 3.6.1 (26313) - http://www.bohemiancoding.com/sketch -->
    <title>       </title>
    <desc>Created with Sketch.</desc>
    <defs></defs>
    <g id="Page-1" stroke="none" stroke-width="1" fill="none" fill-rule="evenodd" font-weight="normal" font-family="FontAwesome" font-size="50" opacity="0.439598881">
        <g id="iPhone-6-Plus" transform="translate(-96.000000, -1870.000000)" fill="#333333">
            <text id="-------">
                <tspan x="96" y="1913">       </tspan>
            </text>
        </g>
    </g>
</svg>